INDEX VERSION 1.130+C:\fsd 62\fsd62\Module3\workspace1\.metadata\.plugins\org.eclipse.jdt.core
2507423472.index
4135958314.index
1956904976.index
180487744.index
1633262424.index
2165932507.index
459397772.index
75973372.index
3610567823.index
451118929.index
2885606711.index
674573568.index
599049241.index
895354549.index
411227453.index
3129104022.index
4155872415.index
2066830214.index
2945249621.index
813964236.index
2056796372.index
3040837599.index
4273315080.index
4033505973.index
542153213.index
3126249444.index
1961815414.index
4168022022.index
4259073463.index
761247917.index
2205283528.index
186641554.index
1946725198.index
3324898567.index
342514465.index
537976347.index
2339389650.index
3348520720.index
1980557525.index
3644761064.index
2754831543.index
3755866047.index
3825647790.index
4138326577.index
1611020005.index
2886443320.index
103378668.index
1110969604.index
