INDEX VERSION 1.130+C:\fsd 62\fsd62\Module 4\SpringBoot\ProductWorkspace\.metadata\.plugins\org.eclipse.jdt.core
2082716254.index
1426430531.index
1621681302.index
4229448508.index
418227445.index
18607218.index
1108078118.index
2124618528.index
159254551.index
1236563437.index
1961815414.index
895354549.index
1988194996.index
53663301.index
2208348692.index
3937054502.index
4138052649.index
2690857149.index
861285979.index
1896292108.index
1739584395.index
421423467.index
2408006057.index
3528438325.index
2103529147.index
309301991.index
4135958314.index
3397609534.index
2294504443.index
169701635.index
3333027229.index
470251802.index
3748424418.index
4138326577.index
3152219753.index
1273746769.index
3351444476.index
2333966892.index
3881241383.index
4259073463.index
2361367776.index
1210135515.index
2085649740.index
3781140236.index
498535539.index
611948742.index
948388726.index
2665227956.index
2066830214.index
411227453.index
234887926.index
4135920845.index
1796210040.index
542153213.index
348850856.index
934140383.index
2661400400.index
3644761064.index
3348520720.index
4196446389.index
2990484499.index
4193188874.index
366846740.index
3870287899.index
3098878716.index
1075922116.index
931325828.index
2908033505.index
1029509927.index
1812566839.index
3335584626.index
1956904976.index
2672833238.index
1946725198.index
3982897805.index
569518005.index
2507423472.index
4035524654.index
2486021804.index
4229416004.index
3040837599.index
3618535528.index
3176521911.index
840898928.index
3861961647.index
779521164.index
1741365412.index
1813980558.index
1606447770.index
1749009773.index
2279054385.index
1670033913.index
2777207005.index
2205283528.index
2301870173.index
3803819234.index
1030800440.index
3236386327.index
103378668.index
674573568.index
2885606711.index
1342051883.index
3651346269.index
