2024-04-23 13:20:32,437 [Worker-0] INFO  o.e.m.c.i.p.ProjectConfigurationManager - Update started
2024-04-23 13:20:34,015 [Worker-0] INFO  o.e.m.c.i.l.LifecycleMappingFactory - Using org.eclipse.m2e.jdt.JarLifecycleMapping lifecycle mapping for MavenProject: com.ts:Product:0.0.1-SNAPSHOT @ C:\fsd 62\fsd62\Module 4\SpringBoot\Product\Product\pom.xml.
2024-04-23 13:20:35,421 [Worker-0] INFO  o.e.m.j.i.AbstractJavaProjectConfigurator - Adding source folder /Product/src/main/java
2024-04-23 13:20:35,422 [Worker-0] INFO  o.e.m.j.i.AbstractJavaProjectConfigurator - Adding resource folder /Product/src/main/resources
2024-04-23 13:20:35,429 [Worker-0] INFO  o.e.m.j.i.AbstractJavaProjectConfigurator - Adding resource folder /Product/src/main/resources
2024-04-23 13:20:35,441 [Worker-0] INFO  o.e.m.j.i.AbstractJavaProjectConfigurator - Adding source folder /Product/src/test/java
2024-04-23 13:20:36,353 [Worker-16] INFO  o.a.m.s.f.DefaultMavenResourcesFiltering - Copying 1 resource from src\main\resources to target\classes
2024-04-23 13:20:36,376 [Worker-16] INFO  o.a.m.s.f.DefaultMavenResourcesFiltering - Copying 0 resource from src\main\resources to target\classes
2024-04-23 13:20:36,378 [Worker-16] INFO  o.a.m.s.f.DefaultMavenResourcesFiltering - skip non existing resourceDirectory C:\fsd 62\fsd62\Module 4\SpringBoot\Product\Product\src\test\resources
2024-04-23 13:20:36,691 [Worker-0] INFO  o.e.m.c.i.p.ProjectConfigurationManager - Update completed: 4 sec
2024-04-23 13:20:37,697 [Worker-6] INFO  o.a.m.s.f.DefaultMavenResourcesFiltering - Copying 1 resource from src\main\resources to target\classes
2024-04-23 13:20:37,699 [Worker-6] INFO  o.a.m.s.f.DefaultMavenResourcesFiltering - Copying 0 resource from src\main\resources to target\classes
2024-04-23 13:20:37,701 [Worker-6] INFO  o.a.m.s.f.DefaultMavenResourcesFiltering - skip non existing resourceDirectory C:\fsd 62\fsd62\Module 4\SpringBoot\Product\Product\src\test\resources
2024-04-23 13:21:49,501 [Worker-14] INFO  o.e.m.c.i.l.LifecycleMappingFactory - Using org.eclipse.m2e.jdt.JarLifecycleMapping lifecycle mapping for MavenProject: com.ts:Product:0.0.1-SNAPSHOT @ C:\fsd 62\fsd62\Module 4\SpringBoot\Product\Product\pom.xml.
2024-04-23 13:21:50,389 [Worker-14] INFO  o.e.m.c.i.embedder.EclipseLogger - Using 'UTF-8' encoding to copy filtered resources.
2024-04-23 13:21:50,389 [Worker-14] INFO  o.e.m.c.i.embedder.EclipseLogger - Using 'UTF-8' encoding to copy filtered properties files.
2024-04-23 13:21:50,393 [Worker-14] INFO  o.e.m.c.i.embedder.EclipseLogger - Copying 0 resource
2024-04-23 13:21:50,393 [Worker-14] INFO  o.e.m.c.i.embedder.EclipseLogger - Copying 0 resource
2024-04-23 13:21:50,396 [Worker-14] INFO  o.e.m.c.i.embedder.EclipseLogger - Using 'UTF-8' encoding to copy filtered resources.
2024-04-23 13:21:50,396 [Worker-14] INFO  o.e.m.c.i.embedder.EclipseLogger - Using 'UTF-8' encoding to copy filtered properties files.
2024-04-23 13:21:50,396 [Worker-14] INFO  o.e.m.c.i.embedder.EclipseLogger - skip non existing resourceDirectory C:\fsd 62\fsd62\Module 4\SpringBoot\Product\Product\src\test\resources
2024-04-23 13:21:52,068 [Worker-5] INFO  o.e.m.c.i.embedder.EclipseLogger - Using 'UTF-8' encoding to copy filtered resources.
2024-04-23 13:21:52,068 [Worker-5] INFO  o.e.m.c.i.embedder.EclipseLogger - Using 'UTF-8' encoding to copy filtered properties files.
2024-04-23 13:21:52,069 [Worker-5] INFO  o.e.m.c.i.embedder.EclipseLogger - Copying 1 resource
2024-04-23 13:21:52,084 [Worker-5] INFO  o.e.m.c.i.embedder.EclipseLogger - Copying 0 resource
2024-04-23 13:21:52,086 [Worker-5] INFO  o.e.m.c.i.embedder.EclipseLogger - Using 'UTF-8' encoding to copy filtered resources.
2024-04-23 13:21:52,087 [Worker-5] INFO  o.e.m.c.i.embedder.EclipseLogger - Using 'UTF-8' encoding to copy filtered properties files.
2024-04-23 13:21:52,087 [Worker-5] INFO  o.e.m.c.i.embedder.EclipseLogger - skip non existing resourceDirectory C:\fsd 62\fsd62\Module 4\SpringBoot\Product\Product\src\test\resources
2024-04-24 09:42:40,585 [Worker-5] INFO  o.e.m.c.i.l.LifecycleMappingFactory - Using org.eclipse.m2e.jdt.JarLifecycleMapping lifecycle mapping for MavenProject: com.ts:Product:0.0.1-SNAPSHOT @ C:\fsd 62\fsd62\Module 4\SpringBoot\Product\Product\pom.xml.
2024-04-24 09:42:42,376 [Worker-5] INFO  o.e.m.c.i.embedder.EclipseLogger - Using 'UTF-8' encoding to copy filtered resources.
2024-04-24 09:42:42,377 [Worker-5] INFO  o.e.m.c.i.embedder.EclipseLogger - Using 'UTF-8' encoding to copy filtered properties files.
2024-04-24 09:42:42,382 [Worker-5] INFO  o.e.m.c.i.embedder.EclipseLogger - Copying 1 resource
2024-04-24 09:42:42,411 [Worker-5] INFO  o.e.m.c.i.embedder.EclipseLogger - Copying 0 resource
2024-04-24 09:42:42,416 [Worker-5] INFO  o.e.m.c.i.embedder.EclipseLogger - Using 'UTF-8' encoding to copy filtered resources.
2024-04-24 09:42:42,416 [Worker-5] INFO  o.e.m.c.i.embedder.EclipseLogger - Using 'UTF-8' encoding to copy filtered properties files.
2024-04-24 09:42:42,417 [Worker-5] INFO  o.e.m.c.i.embedder.EclipseLogger - skip non existing resourceDirectory C:\fsd 62\fsd62\Module 4\SpringBoot\Product\Product\src\test\resources
2024-04-24 09:42:44,135 [Worker-2] INFO  o.e.m.c.i.embedder.EclipseLogger - Using 'UTF-8' encoding to copy filtered resources.
2024-04-24 09:42:44,136 [Worker-2] INFO  o.e.m.c.i.embedder.EclipseLogger - Using 'UTF-8' encoding to copy filtered properties files.
2024-04-24 09:42:44,140 [Worker-2] INFO  o.e.m.c.i.embedder.EclipseLogger - Copying 1 resource
2024-04-24 09:42:44,143 [Worker-2] INFO  o.e.m.c.i.embedder.EclipseLogger - Copying 0 resource
2024-04-24 09:42:44,145 [Worker-2] INFO  o.e.m.c.i.embedder.EclipseLogger - Using 'UTF-8' encoding to copy filtered resources.
2024-04-24 09:42:44,146 [Worker-2] INFO  o.e.m.c.i.embedder.EclipseLogger - Using 'UTF-8' encoding to copy filtered properties files.
2024-04-24 09:42:44,146 [Worker-2] INFO  o.e.m.c.i.embedder.EclipseLogger - skip non existing resourceDirectory C:\fsd 62\fsd62\Module 4\SpringBoot\Product\Product\src\test\resources
2024-04-24 09:57:09,969 [Worker-22] INFO  o.e.m.c.i.embedder.EclipseLogger - Using 'UTF-8' encoding to copy filtered resources.
2024-04-24 09:57:09,969 [Worker-22] INFO  o.e.m.c.i.embedder.EclipseLogger - Using 'UTF-8' encoding to copy filtered properties files.
2024-04-24 09:57:09,969 [Worker-22] INFO  o.e.m.c.i.embedder.EclipseLogger - Copying 1 resource
2024-04-24 09:57:10,001 [Worker-22] INFO  o.e.m.c.i.embedder.EclipseLogger - Copying 0 resource
2024-04-24 09:57:10,001 [Worker-22] INFO  o.e.m.c.i.embedder.EclipseLogger - Using 'UTF-8' encoding to copy filtered resources.
2024-04-24 09:57:10,001 [Worker-22] INFO  o.e.m.c.i.embedder.EclipseLogger - Using 'UTF-8' encoding to copy filtered properties files.
2024-04-24 09:57:10,001 [Worker-22] INFO  o.e.m.c.i.embedder.EclipseLogger - skip non existing resourceDirectory C:\fsd 62\fsd62\Module 4\SpringBoot\Product\Product\src\test\resources
2024-04-24 09:57:26,365 [Worker-23] INFO  o.e.m.c.i.embedder.EclipseLogger - Using 'UTF-8' encoding to copy filtered resources.
2024-04-24 09:57:26,365 [Worker-23] INFO  o.e.m.c.i.embedder.EclipseLogger - Using 'UTF-8' encoding to copy filtered properties files.
2024-04-24 09:57:26,365 [Worker-23] INFO  o.e.m.c.i.embedder.EclipseLogger - Copying 1 resource
2024-04-24 09:57:26,428 [Worker-23] INFO  o.e.m.c.i.embedder.EclipseLogger - Copying 0 resource
2024-04-24 09:57:26,428 [Worker-23] INFO  o.e.m.c.i.embedder.EclipseLogger - Using 'UTF-8' encoding to copy filtered resources.
2024-04-24 09:57:26,428 [Worker-23] INFO  o.e.m.c.i.embedder.EclipseLogger - Using 'UTF-8' encoding to copy filtered properties files.
2024-04-24 09:57:26,428 [Worker-23] INFO  o.e.m.c.i.embedder.EclipseLogger - skip non existing resourceDirectory C:\fsd 62\fsd62\Module 4\SpringBoot\Product\Product\src\test\resources
2024-04-24 09:57:40,106 [Worker-24] INFO  o.e.m.c.i.embedder.EclipseLogger - Using 'UTF-8' encoding to copy filtered resources.
2024-04-24 09:57:40,122 [Worker-24] INFO  o.e.m.c.i.embedder.EclipseLogger - Using 'UTF-8' encoding to copy filtered properties files.
2024-04-24 09:57:40,123 [Worker-24] INFO  o.e.m.c.i.embedder.EclipseLogger - Copying 1 resource
2024-04-24 09:57:40,137 [Worker-24] INFO  o.e.m.c.i.embedder.EclipseLogger - Copying 0 resource
2024-04-24 09:57:40,137 [Worker-24] INFO  o.e.m.c.i.embedder.EclipseLogger - Using 'UTF-8' encoding to copy filtered resources.
2024-04-24 09:57:40,137 [Worker-24] INFO  o.e.m.c.i.embedder.EclipseLogger - Using 'UTF-8' encoding to copy filtered properties files.
2024-04-24 09:57:40,137 [Worker-24] INFO  o.e.m.c.i.embedder.EclipseLogger - skip non existing resourceDirectory C:\fsd 62\fsd62\Module 4\SpringBoot\Product\Product\src\test\resources
2024-04-24 10:04:58,670 [Worker-23] INFO  o.e.m.c.i.embedder.EclipseLogger - Using 'UTF-8' encoding to copy filtered resources.
2024-04-24 10:04:58,670 [Worker-23] INFO  o.e.m.c.i.embedder.EclipseLogger - Using 'UTF-8' encoding to copy filtered properties files.
2024-04-24 10:04:58,670 [Worker-23] INFO  o.e.m.c.i.embedder.EclipseLogger - Copying 1 resource
2024-04-24 10:04:58,701 [Worker-23] INFO  o.e.m.c.i.embedder.EclipseLogger - Copying 0 resource
2024-04-24 10:04:58,717 [Worker-23] INFO  o.e.m.c.i.embedder.EclipseLogger - Using 'UTF-8' encoding to copy filtered resources.
2024-04-24 10:04:58,717 [Worker-23] INFO  o.e.m.c.i.embedder.EclipseLogger - Using 'UTF-8' encoding to copy filtered properties files.
2024-04-24 10:04:58,717 [Worker-23] INFO  o.e.m.c.i.embedder.EclipseLogger - skip non existing resourceDirectory C:\fsd 62\fsd62\Module 4\SpringBoot\Product\Product\src\test\resources
2024-04-24 10:05:14,623 [Worker-23] INFO  o.e.m.c.i.embedder.EclipseLogger - Using 'UTF-8' encoding to copy filtered resources.
2024-04-24 10:05:14,623 [Worker-23] INFO  o.e.m.c.i.embedder.EclipseLogger - Using 'UTF-8' encoding to copy filtered properties files.
2024-04-24 10:05:14,623 [Worker-23] INFO  o.e.m.c.i.embedder.EclipseLogger - Copying 1 resource
2024-04-24 10:05:14,638 [Worker-23] INFO  o.e.m.c.i.embedder.EclipseLogger - Copying 0 resource
2024-04-24 10:05:14,638 [Worker-23] INFO  o.e.m.c.i.embedder.EclipseLogger - Using 'UTF-8' encoding to copy filtered resources.
2024-04-24 10:05:14,649 [Worker-23] INFO  o.e.m.c.i.embedder.EclipseLogger - Using 'UTF-8' encoding to copy filtered properties files.
2024-04-24 10:05:14,652 [Worker-23] INFO  o.e.m.c.i.embedder.EclipseLogger - skip non existing resourceDirectory C:\fsd 62\fsd62\Module 4\SpringBoot\Product\Product\src\test\resources
2024-04-24 10:05:45,423 [Worker-28] INFO  o.e.m.c.i.embedder.EclipseLogger - Using 'UTF-8' encoding to copy filtered resources.
2024-04-24 10:05:45,423 [Worker-28] INFO  o.e.m.c.i.embedder.EclipseLogger - Using 'UTF-8' encoding to copy filtered properties files.
2024-04-24 10:05:45,423 [Worker-28] INFO  o.e.m.c.i.embedder.EclipseLogger - Copying 1 resource
2024-04-24 10:05:45,454 [Worker-28] INFO  o.e.m.c.i.embedder.EclipseLogger - Copying 0 resource
2024-04-24 10:05:45,470 [Worker-28] INFO  o.e.m.c.i.embedder.EclipseLogger - Using 'UTF-8' encoding to copy filtered resources.
2024-04-24 10:05:45,470 [Worker-28] INFO  o.e.m.c.i.embedder.EclipseLogger - Using 'UTF-8' encoding to copy filtered properties files.
2024-04-24 10:05:45,470 [Worker-28] INFO  o.e.m.c.i.embedder.EclipseLogger - skip non existing resourceDirectory C:\fsd 62\fsd62\Module 4\SpringBoot\Product\Product\src\test\resources
2024-04-24 10:16:15,387 [Worker-33] INFO  o.e.m.c.i.embedder.EclipseLogger - Using 'UTF-8' encoding to copy filtered resources.
2024-04-24 10:16:15,387 [Worker-33] INFO  o.e.m.c.i.embedder.EclipseLogger - Using 'UTF-8' encoding to copy filtered properties files.
2024-04-24 10:16:15,387 [Worker-33] INFO  o.e.m.c.i.embedder.EclipseLogger - Copying 1 resource
2024-04-24 10:16:15,411 [Worker-33] INFO  o.e.m.c.i.embedder.EclipseLogger - Copying 0 resource
2024-04-24 10:16:15,419 [Worker-33] INFO  o.e.m.c.i.embedder.EclipseLogger - Using 'UTF-8' encoding to copy filtered resources.
2024-04-24 10:16:15,419 [Worker-33] INFO  o.e.m.c.i.embedder.EclipseLogger - Using 'UTF-8' encoding to copy filtered properties files.
2024-04-24 10:16:15,419 [Worker-33] INFO  o.e.m.c.i.embedder.EclipseLogger - skip non existing resourceDirectory C:\fsd 62\fsd62\Module 4\SpringBoot\Product\Product\src\test\resources
2024-04-24 10:16:55,212 [Worker-34] INFO  o.e.m.c.i.embedder.EclipseLogger - Using 'UTF-8' encoding to copy filtered resources.
2024-04-24 10:16:55,212 [Worker-34] INFO  o.e.m.c.i.embedder.EclipseLogger - Using 'UTF-8' encoding to copy filtered properties files.
2024-04-24 10:16:55,212 [Worker-34] INFO  o.e.m.c.i.embedder.EclipseLogger - Copying 1 resource
2024-04-24 10:16:55,243 [Worker-34] INFO  o.e.m.c.i.embedder.EclipseLogger - Copying 0 resource
2024-04-24 10:16:55,248 [Worker-34] INFO  o.e.m.c.i.embedder.EclipseLogger - Using 'UTF-8' encoding to copy filtered resources.
2024-04-24 10:16:55,248 [Worker-34] INFO  o.e.m.c.i.embedder.EclipseLogger - Using 'UTF-8' encoding to copy filtered properties files.
2024-04-24 10:16:55,248 [Worker-34] INFO  o.e.m.c.i.embedder.EclipseLogger - skip non existing resourceDirectory C:\fsd 62\fsd62\Module 4\SpringBoot\Product\Product\src\test\resources
2024-04-24 10:17:16,367 [Worker-34] INFO  o.e.m.c.i.embedder.EclipseLogger - Using 'UTF-8' encoding to copy filtered resources.
2024-04-24 10:17:16,367 [Worker-34] INFO  o.e.m.c.i.embedder.EclipseLogger - Using 'UTF-8' encoding to copy filtered properties files.
2024-04-24 10:17:16,367 [Worker-34] INFO  o.e.m.c.i.embedder.EclipseLogger - Copying 1 resource
2024-04-24 10:17:16,382 [Worker-34] INFO  o.e.m.c.i.embedder.EclipseLogger - Copying 0 resource
2024-04-24 10:17:16,382 [Worker-34] INFO  o.e.m.c.i.embedder.EclipseLogger - Using 'UTF-8' encoding to copy filtered resources.
2024-04-24 10:17:16,382 [Worker-34] INFO  o.e.m.c.i.embedder.EclipseLogger - Using 'UTF-8' encoding to copy filtered properties files.
2024-04-24 10:17:16,382 [Worker-34] INFO  o.e.m.c.i.embedder.EclipseLogger - skip non existing resourceDirectory C:\fsd 62\fsd62\Module 4\SpringBoot\Product\Product\src\test\resources
2024-04-24 10:33:17,095 [Worker-39] INFO  o.e.m.c.i.embedder.EclipseLogger - Using 'UTF-8' encoding to copy filtered resources.
2024-04-24 10:33:17,095 [Worker-39] INFO  o.e.m.c.i.embedder.EclipseLogger - Using 'UTF-8' encoding to copy filtered properties files.
2024-04-24 10:33:17,095 [Worker-39] INFO  o.e.m.c.i.embedder.EclipseLogger - Copying 1 resource
2024-04-24 10:33:17,111 [Worker-39] INFO  o.e.m.c.i.embedder.EclipseLogger - Copying 0 resource
2024-04-24 10:33:17,126 [Worker-39] INFO  o.e.m.c.i.embedder.EclipseLogger - Using 'UTF-8' encoding to copy filtered resources.
2024-04-24 10:33:17,126 [Worker-39] INFO  o.e.m.c.i.embedder.EclipseLogger - Using 'UTF-8' encoding to copy filtered properties files.
2024-04-24 10:33:17,126 [Worker-39] INFO  o.e.m.c.i.embedder.EclipseLogger - skip non existing resourceDirectory C:\fsd 62\fsd62\Module 4\SpringBoot\Product\Product\src\test\resources
2024-04-24 10:35:08,141 [Worker-40] INFO  o.e.m.c.i.l.LifecycleMappingFactory - Using org.eclipse.m2e.jdt.JarLifecycleMapping lifecycle mapping for MavenProject: com.ts:Product:0.0.1-SNAPSHOT @ C:\fsd 62\fsd62\Module 4\SpringBoot\Product\Product\pom.xml.
2024-04-24 10:35:09,319 [Worker-40] INFO  o.e.m.c.i.embedder.EclipseLogger - Using 'UTF-8' encoding to copy filtered resources.
2024-04-24 10:35:09,319 [Worker-40] INFO  o.e.m.c.i.embedder.EclipseLogger - Using 'UTF-8' encoding to copy filtered properties files.
2024-04-24 10:35:09,335 [Worker-40] INFO  o.e.m.c.i.embedder.EclipseLogger - Copying 1 resource
2024-04-24 10:35:09,350 [Worker-40] INFO  o.e.m.c.i.embedder.EclipseLogger - Copying 0 resource
2024-04-24 10:35:09,350 [Worker-40] INFO  o.e.m.c.i.embedder.EclipseLogger - Using 'UTF-8' encoding to copy filtered resources.
2024-04-24 10:35:09,350 [Worker-40] INFO  o.e.m.c.i.embedder.EclipseLogger - Using 'UTF-8' encoding to copy filtered properties files.
2024-04-24 10:35:09,350 [Worker-40] INFO  o.e.m.c.i.embedder.EclipseLogger - skip non existing resourceDirectory C:\fsd 62\fsd62\Module 4\SpringBoot\Product\Product\src\test\resources
2024-04-24 10:58:53,743 [Worker-55] INFO  o.e.m.c.i.embedder.EclipseLogger - Using 'UTF-8' encoding to copy filtered resources.
2024-04-24 10:58:53,743 [Worker-55] INFO  o.e.m.c.i.embedder.EclipseLogger - Using 'UTF-8' encoding to copy filtered properties files.
2024-04-24 10:58:53,743 [Worker-55] INFO  o.e.m.c.i.embedder.EclipseLogger - Copying 1 resource
2024-04-24 10:58:53,759 [Worker-55] INFO  o.e.m.c.i.embedder.EclipseLogger - Copying 0 resource
2024-04-24 10:58:53,774 [Worker-55] INFO  o.e.m.c.i.embedder.EclipseLogger - Using 'UTF-8' encoding to copy filtered resources.
2024-04-24 10:58:53,774 [Worker-55] INFO  o.e.m.c.i.embedder.EclipseLogger - Using 'UTF-8' encoding to copy filtered properties files.
2024-04-24 10:58:53,774 [Worker-55] INFO  o.e.m.c.i.embedder.EclipseLogger - skip non existing resourceDirectory C:\fsd 62\fsd62\Module 4\SpringBoot\Product\Product\src\test\resources
2024-04-24 10:59:51,180 [Worker-51] INFO  o.e.m.c.i.embedder.EclipseLogger - Using 'UTF-8' encoding to copy filtered resources.
2024-04-24 10:59:51,180 [Worker-51] INFO  o.e.m.c.i.embedder.EclipseLogger - Using 'UTF-8' encoding to copy filtered properties files.
2024-04-24 10:59:51,180 [Worker-51] INFO  o.e.m.c.i.embedder.EclipseLogger - Copying 1 resource
2024-04-24 10:59:51,195 [Worker-51] INFO  o.e.m.c.i.embedder.EclipseLogger - Copying 0 resource
2024-04-24 10:59:51,195 [Worker-51] INFO  o.e.m.c.i.embedder.EclipseLogger - Using 'UTF-8' encoding to copy filtered resources.
2024-04-24 10:59:51,195 [Worker-51] INFO  o.e.m.c.i.embedder.EclipseLogger - Using 'UTF-8' encoding to copy filtered properties files.
2024-04-24 10:59:51,195 [Worker-51] INFO  o.e.m.c.i.embedder.EclipseLogger - skip non existing resourceDirectory C:\fsd 62\fsd62\Module 4\SpringBoot\Product\Product\src\test\resources
2024-04-24 12:15:22,833 [Worker-61] INFO  o.e.m.c.i.embedder.EclipseLogger - Using 'UTF-8' encoding to copy filtered resources.
2024-04-24 12:15:22,833 [Worker-61] INFO  o.e.m.c.i.embedder.EclipseLogger - Using 'UTF-8' encoding to copy filtered properties files.
2024-04-24 12:15:22,833 [Worker-61] INFO  o.e.m.c.i.embedder.EclipseLogger - Copying 1 resource
2024-04-24 12:15:22,864 [Worker-61] INFO  o.e.m.c.i.embedder.EclipseLogger - Copying 0 resource
2024-04-24 12:15:22,864 [Worker-61] INFO  o.e.m.c.i.embedder.EclipseLogger - Using 'UTF-8' encoding to copy filtered resources.
2024-04-24 12:15:22,864 [Worker-61] INFO  o.e.m.c.i.embedder.EclipseLogger - Using 'UTF-8' encoding to copy filtered properties files.
2024-04-24 12:15:22,864 [Worker-61] INFO  o.e.m.c.i.embedder.EclipseLogger - skip non existing resourceDirectory C:\fsd 62\fsd62\Module 4\SpringBoot\Product\Product\src\test\resources
2024-04-24 12:15:52,538 [Worker-66] INFO  o.e.m.c.i.embedder.EclipseLogger - Using 'UTF-8' encoding to copy filtered resources.
2024-04-24 12:15:52,538 [Worker-66] INFO  o.e.m.c.i.embedder.EclipseLogger - Using 'UTF-8' encoding to copy filtered properties files.
2024-04-24 12:15:52,538 [Worker-66] INFO  o.e.m.c.i.embedder.EclipseLogger - Copying 1 resource
2024-04-24 12:15:52,585 [Worker-66] INFO  o.e.m.c.i.embedder.EclipseLogger - Copying 0 resource
2024-04-24 12:15:52,601 [Worker-66] INFO  o.e.m.c.i.embedder.EclipseLogger - Using 'UTF-8' encoding to copy filtered resources.
2024-04-24 12:15:52,601 [Worker-66] INFO  o.e.m.c.i.embedder.EclipseLogger - Using 'UTF-8' encoding to copy filtered properties files.
2024-04-24 12:15:52,601 [Worker-66] INFO  o.e.m.c.i.embedder.EclipseLogger - skip non existing resourceDirectory C:\fsd 62\fsd62\Module 4\SpringBoot\Product\Product\src\test\resources
2024-04-24 12:16:11,492 [Worker-71] INFO  o.e.m.c.i.embedder.EclipseLogger - Using 'UTF-8' encoding to copy filtered resources.
2024-04-24 12:16:11,492 [Worker-71] INFO  o.e.m.c.i.embedder.EclipseLogger - Using 'UTF-8' encoding to copy filtered properties files.
2024-04-24 12:16:11,508 [Worker-71] INFO  o.e.m.c.i.embedder.EclipseLogger - Copying 1 resource
2024-04-24 12:16:11,508 [Worker-71] INFO  o.e.m.c.i.embedder.EclipseLogger - Copying 0 resource
2024-04-24 12:16:11,523 [Worker-71] INFO  o.e.m.c.i.embedder.EclipseLogger - Using 'UTF-8' encoding to copy filtered resources.
2024-04-24 12:16:11,523 [Worker-71] INFO  o.e.m.c.i.embedder.EclipseLogger - Using 'UTF-8' encoding to copy filtered properties files.
2024-04-24 12:16:11,523 [Worker-71] INFO  o.e.m.c.i.embedder.EclipseLogger - skip non existing resourceDirectory C:\fsd 62\fsd62\Module 4\SpringBoot\Product\Product\src\test\resources
2024-04-24 12:33:59,959 [Worker-74] INFO  o.e.m.c.i.e.AbstractTransferListenerAdapter - Downloading https://repo.maven.apache.org/maven2/org/springframework/data/spring-data-jpa/2.7.8/spring-data-jpa-2.7.8-sources.jar
2024-04-24 12:34:03,415 [Worker-74] INFO  o.e.m.c.i.e.AbstractTransferListenerAdapter - Downloaded https://repo.maven.apache.org/maven2/org/springframework/data/spring-data-jpa/2.7.8/spring-data-jpa-2.7.8-sources.jar
2024-04-24 12:34:03,478 [Worker-74] INFO  o.e.m.j.internal.DownloadSourcesJob - Downloaded sources for org.springframework.data:spring-data-jpa:2.7.8
2024-04-24 12:34:03,995 [Worker-74] INFO  o.e.m.c.i.embedder.EclipseLogger - Using 'UTF-8' encoding to copy filtered resources.
2024-04-24 12:34:03,995 [Worker-74] INFO  o.e.m.c.i.embedder.EclipseLogger - Using 'UTF-8' encoding to copy filtered properties files.
2024-04-24 12:34:03,995 [Worker-74] INFO  o.e.m.c.i.embedder.EclipseLogger - Copying 0 resource
2024-04-24 12:34:03,995 [Worker-74] INFO  o.e.m.c.i.embedder.EclipseLogger - Copying 0 resource
2024-04-24 12:34:04,012 [Worker-74] INFO  o.e.m.c.i.embedder.EclipseLogger - Using 'UTF-8' encoding to copy filtered resources.
2024-04-24 12:34:04,012 [Worker-74] INFO  o.e.m.c.i.embedder.EclipseLogger - Using 'UTF-8' encoding to copy filtered properties files.
2024-04-24 12:34:04,012 [Worker-74] INFO  o.e.m.c.i.embedder.EclipseLogger - skip non existing resourceDirectory C:\fsd 62\fsd62\Module 4\SpringBoot\Product\Product\src\test\resources
2024-04-24 12:35:11,123 [Worker-77] INFO  o.e.m.c.i.e.AbstractTransferListenerAdapter - Downloading https://repo.maven.apache.org/maven2/org/springframework/data/spring-data-commons/2.7.8/spring-data-commons-2.7.8-sources.jar
2024-04-24 12:35:23,409 [Worker-77] INFO  o.e.m.c.i.e.AbstractTransferListenerAdapter - Downloaded https://repo.maven.apache.org/maven2/org/springframework/data/spring-data-commons/2.7.8/spring-data-commons-2.7.8-sources.jar
2024-04-24 12:35:23,471 [Worker-77] INFO  o.e.m.j.internal.DownloadSourcesJob - Downloaded sources for org.springframework.data:spring-data-commons:2.7.8
2024-04-24 12:35:23,862 [Worker-75] INFO  o.e.m.c.i.embedder.EclipseLogger - Using 'UTF-8' encoding to copy filtered resources.
2024-04-24 12:35:23,862 [Worker-75] INFO  o.e.m.c.i.embedder.EclipseLogger - Using 'UTF-8' encoding to copy filtered properties files.
2024-04-24 12:35:23,862 [Worker-75] INFO  o.e.m.c.i.embedder.EclipseLogger - Copying 0 resource
2024-04-24 12:35:23,862 [Worker-75] INFO  o.e.m.c.i.embedder.EclipseLogger - Copying 0 resource
2024-04-24 12:35:23,880 [Worker-75] INFO  o.e.m.c.i.embedder.EclipseLogger - Using 'UTF-8' encoding to copy filtered resources.
2024-04-24 12:35:23,880 [Worker-75] INFO  o.e.m.c.i.embedder.EclipseLogger - Using 'UTF-8' encoding to copy filtered properties files.
2024-04-24 12:35:23,880 [Worker-75] INFO  o.e.m.c.i.embedder.EclipseLogger - skip non existing resourceDirectory C:\fsd 62\fsd62\Module 4\SpringBoot\Product\Product\src\test\resources
2024-04-24 12:56:33,801 [Worker-76] INFO  o.e.m.c.i.embedder.EclipseLogger - Using 'UTF-8' encoding to copy filtered resources.
2024-04-24 12:56:33,801 [Worker-76] INFO  o.e.m.c.i.embedder.EclipseLogger - Using 'UTF-8' encoding to copy filtered properties files.
2024-04-24 12:56:33,801 [Worker-76] INFO  o.e.m.c.i.embedder.EclipseLogger - Copying 1 resource
2024-04-24 12:56:33,817 [Worker-76] INFO  o.e.m.c.i.embedder.EclipseLogger - Copying 0 resource
2024-04-24 12:56:33,817 [Worker-76] INFO  o.e.m.c.i.embedder.EclipseLogger - Using 'UTF-8' encoding to copy filtered resources.
2024-04-24 12:56:33,817 [Worker-76] INFO  o.e.m.c.i.embedder.EclipseLogger - Using 'UTF-8' encoding to copy filtered properties files.
2024-04-24 12:56:33,817 [Worker-76] INFO  o.e.m.c.i.embedder.EclipseLogger - skip non existing resourceDirectory C:\fsd 62\fsd62\Module 4\SpringBoot\Product\Product\src\test\resources
2024-04-24 12:56:54,369 [Worker-76] INFO  o.e.m.c.i.embedder.EclipseLogger - Using 'UTF-8' encoding to copy filtered resources.
2024-04-24 12:56:54,369 [Worker-76] INFO  o.e.m.c.i.embedder.EclipseLogger - Using 'UTF-8' encoding to copy filtered properties files.
2024-04-24 12:56:54,369 [Worker-76] INFO  o.e.m.c.i.embedder.EclipseLogger - Copying 1 resource
2024-04-24 12:56:54,432 [Worker-76] INFO  o.e.m.c.i.embedder.EclipseLogger - Copying 0 resource
2024-04-24 12:56:54,432 [Worker-76] INFO  o.e.m.c.i.embedder.EclipseLogger - Using 'UTF-8' encoding to copy filtered resources.
2024-04-24 12:56:54,432 [Worker-76] INFO  o.e.m.c.i.embedder.EclipseLogger - Using 'UTF-8' encoding to copy filtered properties files.
2024-04-24 12:56:54,432 [Worker-76] INFO  o.e.m.c.i.embedder.EclipseLogger - skip non existing resourceDirectory C:\fsd 62\fsd62\Module 4\SpringBoot\Product\Product\src\test\resources
2024-04-24 12:57:14,543 [Worker-84] INFO  o.e.m.c.i.embedder.EclipseLogger - Using 'UTF-8' encoding to copy filtered resources.
2024-04-24 12:57:14,543 [Worker-84] INFO  o.e.m.c.i.embedder.EclipseLogger - Using 'UTF-8' encoding to copy filtered properties files.
2024-04-24 12:57:14,543 [Worker-84] INFO  o.e.m.c.i.embedder.EclipseLogger - Copying 1 resource
2024-04-24 12:57:14,543 [Worker-84] INFO  o.e.m.c.i.embedder.EclipseLogger - Copying 0 resource
2024-04-24 12:57:14,559 [Worker-84] INFO  o.e.m.c.i.embedder.EclipseLogger - Using 'UTF-8' encoding to copy filtered resources.
2024-04-24 12:57:14,559 [Worker-84] INFO  o.e.m.c.i.embedder.EclipseLogger - Using 'UTF-8' encoding to copy filtered properties files.
2024-04-24 12:57:14,559 [Worker-84] INFO  o.e.m.c.i.embedder.EclipseLogger - skip non existing resourceDirectory C:\fsd 62\fsd62\Module 4\SpringBoot\Product\Product\src\test\resources
2024-04-24 12:57:40,427 [Worker-84] INFO  o.e.m.c.i.embedder.EclipseLogger - Using 'UTF-8' encoding to copy filtered resources.
2024-04-24 12:57:40,427 [Worker-84] INFO  o.e.m.c.i.embedder.EclipseLogger - Using 'UTF-8' encoding to copy filtered properties files.
2024-04-24 12:57:40,427 [Worker-84] INFO  o.e.m.c.i.embedder.EclipseLogger - Copying 1 resource
2024-04-24 12:57:40,443 [Worker-84] INFO  o.e.m.c.i.embedder.EclipseLogger - Copying 0 resource
2024-04-24 12:57:40,443 [Worker-84] INFO  o.e.m.c.i.embedder.EclipseLogger - Using 'UTF-8' encoding to copy filtered resources.
2024-04-24 12:57:40,443 [Worker-84] INFO  o.e.m.c.i.embedder.EclipseLogger - Using 'UTF-8' encoding to copy filtered properties files.
2024-04-24 12:57:40,443 [Worker-84] INFO  o.e.m.c.i.embedder.EclipseLogger - skip non existing resourceDirectory C:\fsd 62\fsd62\Module 4\SpringBoot\Product\Product\src\test\resources
2024-04-24 12:57:48,688 [Worker-83] INFO  o.e.m.c.i.embedder.EclipseLogger - Using 'UTF-8' encoding to copy filtered resources.
2024-04-24 12:57:48,688 [Worker-83] INFO  o.e.m.c.i.embedder.EclipseLogger - Using 'UTF-8' encoding to copy filtered properties files.
2024-04-24 12:57:48,688 [Worker-83] INFO  o.e.m.c.i.embedder.EclipseLogger - Copying 1 resource
2024-04-24 12:57:48,704 [Worker-83] INFO  o.e.m.c.i.embedder.EclipseLogger - Copying 0 resource
2024-04-24 12:57:48,704 [Worker-83] INFO  o.e.m.c.i.embedder.EclipseLogger - Using 'UTF-8' encoding to copy filtered resources.
2024-04-24 12:57:48,704 [Worker-83] INFO  o.e.m.c.i.embedder.EclipseLogger - Using 'UTF-8' encoding to copy filtered properties files.
2024-04-24 12:57:48,704 [Worker-83] INFO  o.e.m.c.i.embedder.EclipseLogger - skip non existing resourceDirectory C:\fsd 62\fsd62\Module 4\SpringBoot\Product\Product\src\test\resources
2024-04-24 13:16:56,451 [Worker-76] INFO  o.e.m.c.i.embedder.EclipseLogger - Using 'UTF-8' encoding to copy filtered resources.
2024-04-24 13:16:56,451 [Worker-76] INFO  o.e.m.c.i.embedder.EclipseLogger - Using 'UTF-8' encoding to copy filtered properties files.
2024-04-24 13:16:56,466 [Worker-76] INFO  o.e.m.c.i.embedder.EclipseLogger - Copying 1 resource
2024-04-24 13:16:56,482 [Worker-76] INFO  o.e.m.c.i.embedder.EclipseLogger - Copying 0 resource
2024-04-24 13:16:56,482 [Worker-76] INFO  o.e.m.c.i.embedder.EclipseLogger - Using 'UTF-8' encoding to copy filtered resources.
2024-04-24 13:16:56,482 [Worker-76] INFO  o.e.m.c.i.embedder.EclipseLogger - Using 'UTF-8' encoding to copy filtered properties files.
2024-04-24 13:16:56,482 [Worker-76] INFO  o.e.m.c.i.embedder.EclipseLogger - skip non existing resourceDirectory C:\fsd 62\fsd62\Module 4\SpringBoot\Product\Product\src\test\resources
2024-04-24 13:17:00,766 [Worker-86] INFO  o.e.m.c.i.embedder.EclipseLogger - Using 'UTF-8' encoding to copy filtered resources.
2024-04-24 13:17:00,766 [Worker-86] INFO  o.e.m.c.i.embedder.EclipseLogger - Using 'UTF-8' encoding to copy filtered properties files.
2024-04-24 13:17:00,766 [Worker-86] INFO  o.e.m.c.i.embedder.EclipseLogger - Copying 1 resource
2024-04-24 13:17:00,813 [Worker-86] INFO  o.e.m.c.i.embedder.EclipseLogger - Copying 0 resource
2024-04-24 13:17:00,845 [Worker-86] INFO  o.e.m.c.i.embedder.EclipseLogger - Using 'UTF-8' encoding to copy filtered resources.
2024-04-24 13:17:00,845 [Worker-86] INFO  o.e.m.c.i.embedder.EclipseLogger - Using 'UTF-8' encoding to copy filtered properties files.
2024-04-24 13:17:00,845 [Worker-86] INFO  o.e.m.c.i.embedder.EclipseLogger - skip non existing resourceDirectory C:\fsd 62\fsd62\Module 4\SpringBoot\Product\Product\src\test\resources
2024-04-24 13:34:56,663 [Worker-96] INFO  o.e.m.c.i.embedder.EclipseLogger - Using 'UTF-8' encoding to copy filtered resources.
2024-04-24 13:34:56,663 [Worker-96] INFO  o.e.m.c.i.embedder.EclipseLogger - Using 'UTF-8' encoding to copy filtered properties files.
2024-04-24 13:34:56,663 [Worker-96] INFO  o.e.m.c.i.embedder.EclipseLogger - Copying 1 resource
2024-04-24 13:34:56,695 [Worker-96] INFO  o.e.m.c.i.embedder.EclipseLogger - Copying 0 resource
2024-04-24 13:34:56,695 [Worker-96] INFO  o.e.m.c.i.embedder.EclipseLogger - Using 'UTF-8' encoding to copy filtered resources.
2024-04-24 13:34:56,695 [Worker-96] INFO  o.e.m.c.i.embedder.EclipseLogger - Using 'UTF-8' encoding to copy filtered properties files.
2024-04-24 13:34:56,695 [Worker-96] INFO  o.e.m.c.i.embedder.EclipseLogger - skip non existing resourceDirectory C:\fsd 62\fsd62\Module 4\SpringBoot\Product\Product\src\test\resources
2024-04-24 13:34:59,482 [Worker-98] INFO  o.e.m.c.i.embedder.EclipseLogger - Using 'UTF-8' encoding to copy filtered resources.
2024-04-24 13:34:59,482 [Worker-98] INFO  o.e.m.c.i.embedder.EclipseLogger - Using 'UTF-8' encoding to copy filtered properties files.
2024-04-24 13:34:59,482 [Worker-98] INFO  o.e.m.c.i.embedder.EclipseLogger - Copying 1 resource
2024-04-24 13:34:59,513 [Worker-98] INFO  o.e.m.c.i.embedder.EclipseLogger - Copying 0 resource
2024-04-24 13:34:59,513 [Worker-98] INFO  o.e.m.c.i.embedder.EclipseLogger - Using 'UTF-8' encoding to copy filtered resources.
2024-04-24 13:34:59,513 [Worker-98] INFO  o.e.m.c.i.embedder.EclipseLogger - Using 'UTF-8' encoding to copy filtered properties files.
2024-04-24 13:34:59,513 [Worker-98] INFO  o.e.m.c.i.embedder.EclipseLogger - skip non existing resourceDirectory C:\fsd 62\fsd62\Module 4\SpringBoot\Product\Product\src\test\resources
2024-04-24 13:35:29,683 [Worker-98] INFO  o.e.m.c.i.embedder.EclipseLogger - Using 'UTF-8' encoding to copy filtered resources.
2024-04-24 13:35:29,683 [Worker-98] INFO  o.e.m.c.i.embedder.EclipseLogger - Using 'UTF-8' encoding to copy filtered properties files.
2024-04-24 13:35:29,683 [Worker-98] INFO  o.e.m.c.i.embedder.EclipseLogger - Copying 1 resource
2024-04-24 13:35:29,699 [Worker-98] INFO  o.e.m.c.i.embedder.EclipseLogger - Copying 0 resource
2024-04-24 13:35:29,699 [Worker-98] INFO  o.e.m.c.i.embedder.EclipseLogger - Using 'UTF-8' encoding to copy filtered resources.
2024-04-24 13:35:29,699 [Worker-98] INFO  o.e.m.c.i.embedder.EclipseLogger - Using 'UTF-8' encoding to copy filtered properties files.
2024-04-24 13:35:29,699 [Worker-98] INFO  o.e.m.c.i.embedder.EclipseLogger - skip non existing resourceDirectory C:\fsd 62\fsd62\Module 4\SpringBoot\Product\Product\src\test\resources
2024-04-25 10:02:21,444 [Worker-132] INFO  o.e.m.c.i.embedder.EclipseLogger - Using 'UTF-8' encoding to copy filtered resources.
2024-04-25 10:02:21,460 [Worker-132] INFO  o.e.m.c.i.embedder.EclipseLogger - Using 'UTF-8' encoding to copy filtered properties files.
2024-04-25 10:02:21,460 [Worker-132] INFO  o.e.m.c.i.embedder.EclipseLogger - Copying 1 resource
2024-04-25 10:02:21,491 [Worker-132] INFO  o.e.m.c.i.embedder.EclipseLogger - Copying 0 resource
2024-04-25 10:02:21,507 [Worker-132] INFO  o.e.m.c.i.embedder.EclipseLogger - Using 'UTF-8' encoding to copy filtered resources.
2024-04-25 10:02:21,507 [Worker-132] INFO  o.e.m.c.i.embedder.EclipseLogger - Using 'UTF-8' encoding to copy filtered properties files.
2024-04-25 10:02:21,507 [Worker-132] INFO  o.e.m.c.i.embedder.EclipseLogger - skip non existing resourceDirectory C:\fsd 62\fsd62\Module 4\SpringBoot\Product\Product\src\test\resources
2024-04-25 10:03:06,158 [Worker-133] INFO  o.e.m.c.i.embedder.EclipseLogger - Using 'UTF-8' encoding to copy filtered resources.
2024-04-25 10:03:06,158 [Worker-133] INFO  o.e.m.c.i.embedder.EclipseLogger - Using 'UTF-8' encoding to copy filtered properties files.
2024-04-25 10:03:06,158 [Worker-133] INFO  o.e.m.c.i.embedder.EclipseLogger - Copying 1 resource
2024-04-25 10:03:06,190 [Worker-133] INFO  o.e.m.c.i.embedder.EclipseLogger - Copying 0 resource
2024-04-25 10:03:06,190 [Worker-133] INFO  o.e.m.c.i.embedder.EclipseLogger - Using 'UTF-8' encoding to copy filtered resources.
2024-04-25 10:03:06,190 [Worker-133] INFO  o.e.m.c.i.embedder.EclipseLogger - Using 'UTF-8' encoding to copy filtered properties files.
2024-04-25 10:03:06,190 [Worker-133] INFO  o.e.m.c.i.embedder.EclipseLogger - skip non existing resourceDirectory C:\fsd 62\fsd62\Module 4\SpringBoot\Product\Product\src\test\resources
2024-04-25 10:03:12,729 [Worker-133] INFO  o.e.m.c.i.embedder.EclipseLogger - Using 'UTF-8' encoding to copy filtered resources.
2024-04-25 10:03:12,729 [Worker-133] INFO  o.e.m.c.i.embedder.EclipseLogger - Using 'UTF-8' encoding to copy filtered properties files.
2024-04-25 10:03:12,745 [Worker-133] INFO  o.e.m.c.i.embedder.EclipseLogger - Copying 1 resource
2024-04-25 10:03:12,776 [Worker-133] INFO  o.e.m.c.i.embedder.EclipseLogger - Copying 0 resource
2024-04-25 10:03:12,776 [Worker-133] INFO  o.e.m.c.i.embedder.EclipseLogger - Using 'UTF-8' encoding to copy filtered resources.
2024-04-25 10:03:12,776 [Worker-133] INFO  o.e.m.c.i.embedder.EclipseLogger - Using 'UTF-8' encoding to copy filtered properties files.
2024-04-25 10:03:12,776 [Worker-133] INFO  o.e.m.c.i.embedder.EclipseLogger - skip non existing resourceDirectory C:\fsd 62\fsd62\Module 4\SpringBoot\Product\Product\src\test\resources
2024-04-25 10:31:43,527 [Worker-144] INFO  o.e.m.c.i.embedder.EclipseLogger - Using 'UTF-8' encoding to copy filtered resources.
2024-04-25 10:31:43,527 [Worker-144] INFO  o.e.m.c.i.embedder.EclipseLogger - Using 'UTF-8' encoding to copy filtered properties files.
2024-04-25 10:31:43,531 [Worker-144] INFO  o.e.m.c.i.embedder.EclipseLogger - Copying 1 resource
2024-04-25 10:31:43,560 [Worker-144] INFO  o.e.m.c.i.embedder.EclipseLogger - Copying 0 resource
2024-04-25 10:31:43,563 [Worker-144] INFO  o.e.m.c.i.embedder.EclipseLogger - Using 'UTF-8' encoding to copy filtered resources.
2024-04-25 10:31:43,563 [Worker-144] INFO  o.e.m.c.i.embedder.EclipseLogger - Using 'UTF-8' encoding to copy filtered properties files.
2024-04-25 10:31:43,563 [Worker-144] INFO  o.e.m.c.i.embedder.EclipseLogger - skip non existing resourceDirectory C:\fsd 62\fsd62\Module 4\SpringBoot\Product\Product\src\test\resources
2024-04-25 10:32:12,295 [Worker-144] INFO  o.e.m.c.i.embedder.EclipseLogger - Using 'UTF-8' encoding to copy filtered resources.
2024-04-25 10:32:12,295 [Worker-144] INFO  o.e.m.c.i.embedder.EclipseLogger - Using 'UTF-8' encoding to copy filtered properties files.
2024-04-25 10:32:12,295 [Worker-144] INFO  o.e.m.c.i.embedder.EclipseLogger - Copying 1 resource
2024-04-25 10:32:12,310 [Worker-144] INFO  o.e.m.c.i.embedder.EclipseLogger - Copying 0 resource
2024-04-25 10:32:12,310 [Worker-144] INFO  o.e.m.c.i.embedder.EclipseLogger - Using 'UTF-8' encoding to copy filtered resources.
2024-04-25 10:32:12,310 [Worker-144] INFO  o.e.m.c.i.embedder.EclipseLogger - Using 'UTF-8' encoding to copy filtered properties files.
2024-04-25 10:32:12,310 [Worker-144] INFO  o.e.m.c.i.embedder.EclipseLogger - skip non existing resourceDirectory C:\fsd 62\fsd62\Module 4\SpringBoot\Product\Product\src\test\resources
2024-04-25 10:32:16,317 [Worker-144] INFO  o.e.m.c.i.embedder.EclipseLogger - Using 'UTF-8' encoding to copy filtered resources.
2024-04-25 10:32:16,317 [Worker-144] INFO  o.e.m.c.i.embedder.EclipseLogger - Using 'UTF-8' encoding to copy filtered properties files.
2024-04-25 10:32:16,317 [Worker-144] INFO  o.e.m.c.i.embedder.EclipseLogger - Copying 1 resource
2024-04-25 10:32:16,333 [Worker-144] INFO  o.e.m.c.i.embedder.EclipseLogger - Copying 0 resource
2024-04-25 10:32:16,343 [Worker-144] INFO  o.e.m.c.i.embedder.EclipseLogger - Using 'UTF-8' encoding to copy filtered resources.
2024-04-25 10:32:16,343 [Worker-144] INFO  o.e.m.c.i.embedder.EclipseLogger - Using 'UTF-8' encoding to copy filtered properties files.
2024-04-25 10:32:16,343 [Worker-144] INFO  o.e.m.c.i.embedder.EclipseLogger - skip non existing resourceDirectory C:\fsd 62\fsd62\Module 4\SpringBoot\Product\Product\src\test\resources
2024-04-25 18:44:41,539 [Worker-53] INFO  o.e.m.c.i.embedder.EclipseLogger - Using 'UTF-8' encoding to copy filtered resources.
2024-04-25 18:44:41,555 [Worker-53] INFO  o.e.m.c.i.embedder.EclipseLogger - Using 'UTF-8' encoding to copy filtered properties files.
2024-04-25 18:44:41,555 [Worker-53] INFO  o.e.m.c.i.embedder.EclipseLogger - Copying 1 resource
2024-04-25 18:44:41,664 [Worker-53] INFO  o.e.m.c.i.embedder.EclipseLogger - Copying 0 resource
2024-04-25 18:44:41,664 [Worker-53] INFO  o.e.m.c.i.embedder.EclipseLogger - Using 'UTF-8' encoding to copy filtered resources.
2024-04-25 18:44:41,664 [Worker-53] INFO  o.e.m.c.i.embedder.EclipseLogger - Using 'UTF-8' encoding to copy filtered properties files.
2024-04-25 18:44:41,664 [Worker-53] INFO  o.e.m.c.i.embedder.EclipseLogger - skip non existing resourceDirectory C:\fsd 62\fsd62\Module 4\SpringBoot\Product\Product\src\test\resources
2024-04-25 18:44:45,342 [Worker-41] INFO  o.e.m.c.i.embedder.EclipseLogger - Using 'UTF-8' encoding to copy filtered resources.
2024-04-25 18:44:45,342 [Worker-41] INFO  o.e.m.c.i.embedder.EclipseLogger - Using 'UTF-8' encoding to copy filtered properties files.
2024-04-25 18:44:45,342 [Worker-41] INFO  o.e.m.c.i.embedder.EclipseLogger - Copying 1 resource
2024-04-25 18:44:45,384 [Worker-41] INFO  o.e.m.c.i.embedder.EclipseLogger - Copying 0 resource
2024-04-25 18:44:45,392 [Worker-41] INFO  o.e.m.c.i.embedder.EclipseLogger - Using 'UTF-8' encoding to copy filtered resources.
2024-04-25 18:44:45,392 [Worker-41] INFO  o.e.m.c.i.embedder.EclipseLogger - Using 'UTF-8' encoding to copy filtered properties files.
2024-04-25 18:44:45,392 [Worker-41] INFO  o.e.m.c.i.embedder.EclipseLogger - skip non existing resourceDirectory C:\fsd 62\fsd62\Module 4\SpringBoot\Product\Product\src\test\resources
2024-04-25 18:46:08,595 [Worker-55] INFO  o.e.m.c.i.embedder.EclipseLogger - Using 'UTF-8' encoding to copy filtered resources.
2024-04-25 18:46:08,602 [Worker-55] INFO  o.e.m.c.i.embedder.EclipseLogger - Using 'UTF-8' encoding to copy filtered properties files.
2024-04-25 18:46:08,602 [Worker-55] INFO  o.e.m.c.i.embedder.EclipseLogger - Copying 1 resource
2024-04-25 18:46:08,630 [Worker-55] INFO  o.e.m.c.i.embedder.EclipseLogger - Copying 0 resource
2024-04-25 18:46:08,643 [Worker-55] INFO  o.e.m.c.i.embedder.EclipseLogger - Using 'UTF-8' encoding to copy filtered resources.
2024-04-25 18:46:08,643 [Worker-55] INFO  o.e.m.c.i.embedder.EclipseLogger - Using 'UTF-8' encoding to copy filtered properties files.
2024-04-25 18:46:08,643 [Worker-55] INFO  o.e.m.c.i.embedder.EclipseLogger - skip non existing resourceDirectory C:\fsd 62\fsd62\Module 4\SpringBoot\Product\Product\src\test\resources
2024-04-25 18:55:12,345 [Worker-53] INFO  o.e.m.c.i.embedder.EclipseLogger - Using 'UTF-8' encoding to copy filtered resources.
2024-04-25 18:55:12,345 [Worker-53] INFO  o.e.m.c.i.embedder.EclipseLogger - Using 'UTF-8' encoding to copy filtered properties files.
2024-04-25 18:55:12,345 [Worker-53] INFO  o.e.m.c.i.embedder.EclipseLogger - Copying 1 resource
2024-04-25 18:55:12,385 [Worker-53] INFO  o.e.m.c.i.embedder.EclipseLogger - Copying 0 resource
2024-04-25 18:55:12,385 [Worker-53] INFO  o.e.m.c.i.embedder.EclipseLogger - Using 'UTF-8' encoding to copy filtered resources.
2024-04-25 18:55:12,385 [Worker-53] INFO  o.e.m.c.i.embedder.EclipseLogger - Using 'UTF-8' encoding to copy filtered properties files.
2024-04-25 18:55:12,385 [Worker-53] INFO  o.e.m.c.i.embedder.EclipseLogger - skip non existing resourceDirectory C:\fsd 62\fsd62\Module 4\SpringBoot\Product\Product\src\test\resources
2024-04-25 18:55:17,442 [Worker-61] INFO  o.e.m.c.i.embedder.EclipseLogger - Using 'UTF-8' encoding to copy filtered resources.
2024-04-25 18:55:17,442 [Worker-61] INFO  o.e.m.c.i.embedder.EclipseLogger - Using 'UTF-8' encoding to copy filtered properties files.
2024-04-25 18:55:17,442 [Worker-61] INFO  o.e.m.c.i.embedder.EclipseLogger - Copying 1 resource
2024-04-25 18:55:17,458 [Worker-61] INFO  o.e.m.c.i.embedder.EclipseLogger - Copying 0 resource
2024-04-25 18:55:17,458 [Worker-61] INFO  o.e.m.c.i.embedder.EclipseLogger - Using 'UTF-8' encoding to copy filtered resources.
2024-04-25 18:55:17,458 [Worker-61] INFO  o.e.m.c.i.embedder.EclipseLogger - Using 'UTF-8' encoding to copy filtered properties files.
2024-04-25 18:55:17,458 [Worker-61] INFO  o.e.m.c.i.embedder.EclipseLogger - skip non existing resourceDirectory C:\fsd 62\fsd62\Module 4\SpringBoot\Product\Product\src\test\resources
